Name,Age,Sex,Division,Event,Equipment,BodyweightKg,WeightClassKg,Squat1Kg,Squat2Kg,Squat3Kg,Best3SquatKg,Squat4Kg,Bench1Kg,Bench2Kg,Bench3Kg,Best3BenchKg,Deadlift1Kg,Deadlift2Kg,Deadlift3Kg,Best3DeadliftKg,Deadlift4Kg,TotalKg,Place
Chris Stamatiou,25,M,Open,SBD,Multi-ply,72.3,75,280,300,310,310,,180,190,-195,190,250,275,295,295,-300,795,1
Thomas Lilley,25,M,Open,SBD,Multi-ply,98.7,100,280,300,320.5,320.5,330,155,175,185,185,280,300,315,315,325,820.5,1
Emily Knauth,27,F,Open,SBD,Multi-ply,87.8,90,132.5,142.5,150,150,,77.5,-85,-85,77.5,125,135,-142.5,135,,362.5,1
Josh Vale,26,M,Open,SBD,Multi-ply,78.4,82.5,180,200,210,210,,95,-105,105,105,180,195,-200,195,,510,1
Alex Zerba,28,M,Open,SBD,Multi-ply,109.8,110,355,382.5,-390,382.5,,250,262.5,,262.5,270,290,-305,290,,935,1
Shane Atta-Singh,30,M,Open,SBD,Multi-ply,155.3,140+,-340,-340,340,340,,-275,-280,-280,,270,-300,-320,270,,,DQ
