Place,Name,BirthYear,BodyweightKg,WeightClassKg,Country,Bench1Kg,Bench2Kg,Bench3Kg,Best3BenchKg,TotalKg,Sex,Event,Equipment
1,Svetlana Tesleva,1975,44,44,Russia,85,90,95,95,95,F,B,Single-ply
2,Eva Svjanteková,1973,43.7,44,Slovakia,77.5,82.5,87.5,87.5,87.5,F,B,Single-ply
3,Natalie Janot,1969,43.8,44,France,-80,85,-87.5,85,85,F,B,Single-ply
4,Akiko Iwasaki,1962,43.1,44,Japan,70,-75,77.5,77.5,77.5,F,B,Single-ply
5,Raija Koskinen,1963,43.7,44,Finland,75,77.5,-82.5,77.5,77.5,F,B,Single-ply
6,Junko Kitamura,1963,43.6,44,Japan,70,75,-80,75,75,F,B,Single-ply
DQ,Marion Friedrich,1965,42.7,44,Germany,-77.5,-77.5,-82.5,,,F,B,Single-ply
1,Hanna Svahn,1963,47.7,48,Denmark,85,-90,90,90,90,F,B,Single-ply
2,Dori Illeditsch-W,1962,46.7,48,Germany,-80,-82.5,82.5,82.5,82.5,F,B,Single-ply
3,Gabi Hirner,1965,48,48,Germany,82.5,-85,-85,82.5,82.5,F,B,Single-ply
4,Lee-Ann Dalling,1962,44.3,48,Canada,62.5,65,70,70,70,F,B,Single-ply
5,Rosaline AO,,47.9,48,India,45,52.5,-55,52.5,52.5,F,B,Single-ply
DQ,Michiko Kamiya,1969,46,48,Japan,-70,-70,-70,,,F,B,Single-ply
1,Tamara Podpalnaya,,51.9,52,Russia,100,110,112.5,112.5,112.5,F,B,Single-ply
2,Irina Krylova,1978,51.1,52,Russia,100,-107.5,110,110,110,F,B,Single-ply
3,Kumi Kobayashi,1961,51.5,52,Japan,95,-100,100,100,100,F,B,Single-ply
4,Marion Braun,1970,51.7,52,Austria,90,-95,-97.5,90,90,F,B,Single-ply
5,Mervi Sirkiä,1972,51.7,52,Finland,-87.5,87.5,-90,87.5,87.5,F,B,Single-ply
DQ,Virpi Heikkinen,1970,51.4,52,Finland,-90,-90,-90,,,F,B,Single-ply
1,Tamara Althaus,1976,53.4,56,Germany,115,120,-122.5,120,120,F,B,Single-ply
2,Luba Belova,1963,56,56,Belarus,112.5,117.5,-122.5,117.5,117.5,F,B,Single-ply
3,Maki Wada,1968,55.8,56,Japan,107.5,112.5,,112.5,112.5,F,B,Single-ply
4,Eeva Nikander,1967,55.6,56,Finland,-110,110,-112.5,110,110,F,B,Single-ply
5,Petra Stolt,1967,54.8,56,Germany,90,-95,-95,90,90,F,B,Single-ply
6,Sandra Krebs,1978,55.1,56,Austria,82.5,87.5,-90,87.5,87.5,F,B,Single-ply
7,Laura Locatelli,1957,55.7,56,Italy,82.5,87.5,-90,87.5,87.5,F,B,Single-ply
8,Nadejda Uvachan,1936,52.99,56,Russia,70,-72.5,-72.5,70,70,F,B,Single-ply
9,Lilimoni Bargoain,,55.4,56,India,47.5,-52.5,55,55,55,F,B,Single-ply
1,Julia Schilskaja,1978,59.6,60,Belarus,112.5,120,122.5,122.5,122.5,F,B,Single-ply
2,Simone Hahn,1977,59.1,60,Germany,115,120,,120,120,F,B,Single-ply
3,Jennifer Thompson,1973,58.9,60,USA,-115,115,-120,115,115,F,B,Single-ply
4,Ya-Ling Chen,1962,59.4,60,Taiwan,115,-120,-120,115,115,F,B,Single-ply
5,Yoshiko Komi,1955,59.5,60,Japan,97.5,102.5,-105,102.5,102.5,F,B,Single-ply
6,Ute Villwock,1967,59.3,60,Germany,-100,100,-105,100,100,F,B,Single-ply
7,Anette Thune,1967,57.4,60,Norway,80,85,90,90,90,F,B,Single-ply
8,Angie Overdeer,1970,58.6,60,USA,82.5,90,-95,90,90,F,B,Single-ply
9,Tania Green,1971,58.5,60,New Zealand,80,-82.5,-82.5,80,80,F,B,Single-ply
1,Clara Kasbarian,1959,66.6,67.5,France,140,147.5,150,150,150,F,B,Single-ply
2,Tatjan Danilevich,1972,65.6,67.5,Russia,120,-125,125,125,125,F,B,Single-ply
3,Jsa Cieslak,1972,66.3,67.5,Poland,115,-122.5,-122.5,115,115,F,B,Single-ply
4,Petra Stehlíková,1966,67.4,67.5,Czechia,-110,110,-117.5,110,110,F,B,Single-ply
5,Inger Blikra,1961,67,67.5,Norway,105,-107.5,-107.5,105,105,F,B,Single-ply
6,Jessica Engdahl,1972,64.9,67.5,Sweden,95,100,-105,100,100,F,B,Single-ply
7,Hsin-Hui Chou,1982,61.4,67.5,Taiwan,95,-102.5,-102.5,95,95,F,B,Single-ply
8,Heini Laitinen,1967,62.6,67.5,Finland,90,95,-100,95,95,F,B,Single-ply
9,Lena Mattsson,1964,64.7,67.5,Sweden,92.5,-97.5,-97.5,92.5,92.5,F,B,Single-ply
10,Helen Sauer,1952,64,67.5,USA,90,-97.5,-97.5,90,90,F,B,Single-ply
11,Agnie Morlinska,1976,64.3,67.5,Poland,90,-95,-97.5,90,90,F,B,Single-ply
12,Maria Koskinen,1977,67.2,67.5,Finland,87.5,-92.5,-92.5,87.5,87.5,F,B,Single-ply
1,Claudia Wernig,1969,74.7,75,Austria,112.5,-120,132.5,132.5,132.5,F,B,Single-ply
2,Chiu-Hua Hsieh,1980,74.3,75,Taiwan,120,130,-135,130,130,F,B,Single-ply
3,Eija Ketonen,1974,68.7,75,Finland,100,-102.5,102.5,102.5,102.5,F,B,Single-ply
4,Min-Chu Hung,1983,74.5,75,Taiwan,-100,-100,100,100,100,F,B,Single-ply
5,Leena Furtado,,73.4,75,India,67.5,75,-82.5,75,75,F,B,Single-ply
6,Denise Quellet,1943,73.6,75,Canada,50,-55,-57.5,50,50,F,B,Single-ply
1,Timea Závodszky,1971,81.2,82.5,Hungary,145,150,160,160,160,F,B,Single-ply
2,Svetlana Paltseva,1969,82.3,82.5,Russia,-115,120,125,125,125,F,B,Single-ply
3,Tamara Bagriy,1972,75.1,82.5,Ukraine,117.5,122.5,-127.5,122.5,122.5,F,B,Single-ply
4,Andrea Jiraskova,,75.4,82.5,Czechia,115,120,-125,120,120,F,B,Single-ply
5,Sandra Perron,1952,76.6,82.5,USA,-110,110,115,115,115,F,B,Single-ply
6,Claudia Narovnigg,1972,75.2,82.5,Austria,102.5,107.5,112.5,112.5,112.5,F,B,Single-ply
7,Sinikka Järvenpää,1951,81.2,82.5,Finland,107.5,112.5,-122.5,112.5,112.5,F,B,Single-ply
8,Yu-Fang Wu,1977,76.9,82.5,Taiwan,100,107.5,-112.5,107.5,107.5,F,B,Single-ply
9,Åsa Halvarsson,1961,76.9,82.5,Sweden,102.5,-107.5,-110,102.5,102.5,F,B,Single-ply
10,Hui-Chi Chen,1981,75.2,82.5,Taiwan,95,100,-105,100,100,F,B,Single-ply
11,Taina Hatanpää,1963,82,82.5,Finland,95,-100,100,100,100,F,B,Single-ply
12,Janna Maile,1959,76.4,82.5,USA,-95,95,-100,95,95,F,B,Single-ply
1,Ganna Ganenko,1974,89.9,90,Ukraine,135,145,-157.5,145,145,F,B,Single-ply
2,Rita Kistenmacher,1960,88.8,90,Germany,130,135,-137.5,135,135,F,B,Single-ply
3,Chia-Hui Tsai,1981,88.2,90,Taiwan,125,-132.5,-132.5,125,125,F,B,Single-ply
4,Pei-Jung Lee,1983,89.2,90,Taiwan,-120,-120,120,120,120,F,B,Single-ply
5,Susanne Formgreen,1962,89.9,90,Sweden,110,117.5,120,120,120,F,B,Single-ply
6,Geetha Bai,,85.5,90,India,50,55,57.5,57.5,57.5,F,B,Single-ply
1,Chen-Yeh Chao,1971,110.3,90+,Taiwan,170,179,,179,179,F,B,Single-ply
2,Deborah Ferrel,1964,113.9,90+,USA,140,-152.5,155,155,155,F,B,Single-ply
3,Larisa Petrova,1967,98.9,90+,Belarus,122.5,127.5,-140,127.5,127.5,F,B,Single-ply
4,I-Chen Lee,1977,90.9,90+,Taiwan,-115,115,-120,115,115,F,B,Single-ply
5,Sari Saksa,1975,109.5,90+,Finland,110,115,-120,115,115,F,B,Single-ply
6,Julia Gorecka,1981,90.1,90+,Poland,105,-112.5,-112.5,105,105,F,B,Single-ply
1,Andrzej Stanaszek,1971,50.7,52,Poland,155,165,-170,165,165,M,B,Raw
2,Andris Rüdulis,1977,49.9,52,Latvia,152.5,157.5,-165,157.5,157.5,M,B,Single-ply
3,Kazuya Yanagida,1963,51.5,52,Japan,-152.5,152.5,-165,152.5,152.5,M,B,Single-ply
4,Tran Pham Hung,1974,51.2,52,USA,127.5,135,137.5,137.5,137.5,M,B,Single-ply
DQ,Christian Klein,1970,51.6,52,Germany,-132.5,-132.5,-132.5,,,M,B,Single-ply
1,Makoto Otsubo,1968,55.6,56,Japan,170,181.5,-185,181.5,181.5,M,B,Single-ply
2,Jonas Celin,1970,55.8,56,Sweden,150,-162.5,162.5,162.5,162.5,M,B,Single-ply
3,Sandor Jancsar,1967,55.55,56,Hungary,135,142.5,152.5,152.5,152.5,M,B,Single-ply
4,Krzysztof Owsiany,1964,55.9,56,Poland,152.5,-157.5,-157.5,152.5,152.5,M,B,Single-ply
5,Mirek Hermann,1975,56,56,Poland,140,150,-162.5,150,150,M,B,Single-ply
6,Slawomir Sledz,1976,55.9,56,Poland,135,142.5,-145,142.5,142.5,M,B,Single-ply
7,Tsung-Ting Hsieh,1982,55.4,56,Taiwan,-130,130,-142.5,130,130,M,B,Single-ply
1,Fanil Mukhamatiov,1972,59.1,60,Russia,170,180,-182.5,180,180,M,B,Single-ply
2,Horoyuki Isagawa,1953,59.8,60,Japan,172.5,177.5,-182.5,177.5,177.5,M,B,Single-ply
3,Alexand Radzevics,1963,59.6,60,Latvia,160,165,-167.5,165,165,M,B,Single-ply
4,Claude Cucuzella,1966,59.4,60,France,157.5,162.5,-167.5,162.5,162.5,M,B,Single-ply
5,Claude Sitruk,1950,58.9,60,France,160,-165,-165,160,160,M,B,Single-ply
6,Robert Allen,1961,59.9,60,USA,-142.5,142.5,-150,142.5,142.5,M,B,Single-ply
7,Giov DAllessandro,1962,59.8,60,Italy,122.5,127.5,-130,127.5,127.5,M,B,Single-ply
1,Alexey Sivokon,1973,66.1,67.5,Kazahkstan,190,200,205,205,205,M,B,Single-ply
2,Kimisha Itoh,1972,66.6,67.5,Japan,-190,190,205,205,205,M,B,Single-ply
3,Antero Korva,1962,66.4,67.5,Finland,190,195,-202.5,195,195,M,B,Single-ply
4,Mike Hara,1960,66.8,67.5,USA,187.5,195,-200,195,195,M,B,Single-ply
5,Valery Bogdanov,1970,65.6,67.5,Russia,177.5,182.5,-195,182.5,182.5,M,B,Single-ply
6,Lance Slaughter,1962,67.3,67.5,USA,172.5,-182.5,182.5,182.5,182.5,M,B,Single-ply
7,Oleksa Chernyshov,1966,67.4,67.5,Ukraine,170,177.5,-180,177.5,177.5,M,B,Single-ply
8,Kurt Rooch,1965,66.7,67.5,Germany,-175,175,-195,175,175,M,B,Single-ply
9,Marek Siedlecki,1957,67.4,67.5,Poland,170,-180,-180,170,170,M,B,Single-ply
10,Mark Hale,1963,66.3,67.5,Great Britain,140,147.5,-152.5,147.5,147.5,M,B,Single-ply
11,David Zijdemans,1979,66.9,67.5,Norway,130,137.5,142.5,142.5,142.5,M,B,Single-ply
12,Greg Blackley,1958,65.9,67.5,Australia,120,132.5,-142.5,132.5,132.5,M,B,Single-ply
13,Gopala S Krishnan,1968,66,67.5,India,120,127.5,132.5,132.5,132.5,M,B,Single-ply
1,Alexey Vorobjov,1969,74.8,75,Russia,210,215,220,220,220,M,B,Single-ply
2,Larry Miller,1954,74.1,75,USA,-200,200,210,210,210,M,B,Single-ply
3,Jan Wegiera,1965,74.9,75,Poland,205,210,-212.5,210,210,M,B,Single-ply
4,Kimmo Laakso,1970,74.2,75,Finland,-192.5,192.5,-200,192.5,192.5,M,B,Single-ply
5,Keisuke Takahashi,1973,74.8,75,Japan,192.5,-202.5,-202.5,192.5,192.5,M,B,Single-ply
6,Ville-Pette Erola,1974,74.4,75,Finland,190,-197.5,-202.5,190,190,M,B,Single-ply
7,Szabolcz Könje,1974,74.6,75,Hungary,180,-190,-192.5,180,180,M,B,Single-ply
8,Jens Schlieter,1967,74.3,75,Germany,170,177.5,-180,177.5,177.5,M,B,Single-ply
9,Wally Schmidt,1958,74.7,75,South Africa,155,-162.5,162.5,162.5,162.5,M,B,Single-ply
10,Johnny Jacobsen,1964,73.7,75,Norway,150,155,-160,155,155,M,B,Single-ply
11,Robert Mann,1953,74.1,75,Canada,135,145,-155,145,145,M,B,Single-ply
12,Marco Baroni,1970,74.3,75,Italy,145,-150,-150,145,145,M,B,Single-ply
1,Susumu Otani,1952,81.1,82.5,Japan,227.5,232.5,237.5,237.5,237.5,M,B,Single-ply
2,Laszlo Kubcsik,1967,82.2,82.5,Hungary,222.5,230,-237.5,230,230,M,B,Single-ply
3,Tomi Heinonen,1969,81.22,82.5,Finland,222.5,-225,-225,222.5,222.5,M,B,Single-ply
4,Cheng-Ming Yang,1967,80.7,82.5,Taiwan,220,-227.5,-227.5,220,220,M,B,Single-ply
5,Vladimir Tchadkov,1972,81.8,82.5,Russia,215,220,-225,220,220,M,B,Single-ply
6,Dennis Cieri,1968,82.5,82.5,USA,215,-225,-240,215,215,M,B,Single-ply
7,Juha Tuononen,1968,81.5,82.5,Finland,205,210,-212.5,210,210,M,B,Single-ply
8,Dmitriy Binkevich,1973,81.6,82.5,Belarus,200,205,-210,205,205,M,B,Single-ply
9,Ganadijs Zubriks,1969,81.8,82.5,Latvia,205,-215,-215,205,205,M,B,Single-ply
10,Manuel Bezerra,1965,82.3,82.5,Norway,200,-220,,200,200,M,B,Single-ply
11,Richard Singer,1963,82,82.5,Austria,190,195,-197.5,195,195,M,B,Single-ply
12,Jan Graczyk,1968,80.1,82.5,Poland,190,-200,-200,190,190,M,B,Single-ply
13,Edijs Kleinbergs,,82.1,82.5,Latvia,-175,-175,175,175,175,M,B,Single-ply
14,Mike Dyer,,81.1,82.5,Great Britain,145,152.5,-157.5,152.5,152.5,M,B,Single-ply
15,ND Kumar,,75.6,82.5,India,150,-157.5,-157.5,150,150,M,B,Single-ply
DQ,Leonard McCormick,1964,80.7,82.5,USA,-222.5,-222.5,-227.5,,,M,B,Single-ply
DQ,Arthur Hirner,1958,82.3,82.5,Germany,-217.5,-217.5,-217.5,,,M,B,Single-ply
DQ,Lucian Bertoletti,1960,82.3,82.5,Italy,-152.5,-152.5,,,,M,B,Single-ply
1,Onoso Szabolcz,1970,89.6,90,Hungary,242.5,247.5,-255,247.5,247.5,M,B,Single-ply
2,Lutz Gayek,1967,85.9,90,Germany,220,230,235,235,235,M,B,Single-ply
3,Robert DeCourt,1963,88.7,90,USA,227.5,-235,235,235,235,M,B,Single-ply
4,Alexand Lekomtzev,1965,88.2,90,Russia,-227.5,227.5,232.5,232.5,232.5,M,B,Single-ply
5,Alekseyi Ryschov,1966,88.5,90,Russia,225,-232.5,232.5,232.5,232.5,M,B,Single-ply
6,Yoichi Kishimoto,1978,88.7,90,Japan,-207.5,217.5,-227.5,217.5,217.5,M,B,Single-ply
7,Klaus-Diete Jacob,1961,89.4,90,Germany,200,210,215,215,215,M,B,Single-ply
8,Petr Theuser,,89.6,90,Czechia,215,-220,-220,215,215,M,B,Single-ply
9,Hans Dahlstroem,1966,89.3,90,Sweden,-212.5,212.5,-220,212.5,212.5,M,B,Single-ply
10,Peter Lüftinger,1972,89.6,90,Austria,190,197.5,-202.5,197.5,197.5,M,B,Single-ply
11,Grigor Melkumjans,,89.5,90,Latvia,187.5,-192.5,-195,187.5,187.5,M,B,Single-ply
12,Roar Haugland,1973,88.1,90,Norway,185,-195,-200,185,185,M,B,Single-ply
13,Surender Singh,,88.8,90,India,170,180,-185,180,180,M,B,Single-ply
14,Yegi Williams,1965,88.9,90,South Africa,-160,-170,175,175,175,M,B,Single-ply
15,Ken Stroemland,1976,87.6,90,Norway,150,-155,-160,150,150,M,B,Single-ply
DQ,Anil Kr Sharma,,86.1,90,India,-160,-160,-160,,,M,B,Single-ply
DQ,Jan Lindén,1955,89.1,90,Finland,,,,,,M,B,Single-ply
1,László Mészáros,1968,99.1,100,Hungary,250,260,265,265,265,M,B,Single-ply
2,Vital Ponomarenko,1974,98.99,100,Ukraine,-250,-250,250,250,250,M,B,Single-ply
3,Jerzy Furmanek,1952,98.9,100,Poland,235,240,-242.5,240,240,M,B,Single-ply
4,Oleksiy Solovyov,1975,99.8,100,Ukraine,235,-242.5,-242.5,235,235,M,B,Single-ply
5,Roland Eriksson,1964,99.1,100,Sweden,227.5,232.5,-235,232.5,232.5,M,B,Single-ply
6,Janne Immonen,1972,99.8,100,Finland,-222.5,-232.5,232.5,232.5,232.5,M,B,Single-ply
7,Dmitry Polavinkin,1968,91.7,100,Russia,225,230,-237.5,230,230,M,B,Single-ply
8,Peter Nygren,1971,98.8,100,Sweden,-230,-230,230,230,230,M,B,Single-ply
9,Ralph Young,1963,97.5,100,USA,227.5,-237.5,-237.5,227.5,227.5,M,B,Single-ply
10,Yasukatsu Inoue,1958,97.9,100,Japan,-217.5,220,-227.5,220,220,M,B,Single-ply
11,Sven Raskin,1965,98.1,100,Germany,-215,-220,220,220,220,M,B,Single-ply
12,Bjoern Johansen,1971,98.5,100,Norway,220,-230,-230,220,220,M,B,Single-ply
13,Kim Salby Madsen,,99.3,100,Denmark,185,-202.5,202.5,202.5,202.5,M,B,Single-ply
14,Eliesa Sitifana,1965,98.5,100,,200,-205,-210,200,200,M,B,Single-ply
15,Uģis Vacietis,1967,98.6,100,Latvia,-200,200,-210,200,200,M,B,Single-ply
DQ,Sushil Tagira,,,100,,,,,,,M,B,Single-ply
16,Kumar Sathees,,99.11,100,India,150,157.5,167.5,167.5,167.5,M,B,Single-ply
1,Yuri Khuazhev,1970,108.4,110,Russia,255,260.5,265,265,265,M,B,Single-ply
2,Wieslaw Kruk,1958,105.9,110,Poland,255,260.5,-265,260.5,260.5,M,B,Single-ply
3,Kenneth Mattson,1954,107.2,110,Sweden,250,260,-267.5,260,260,M,B,Single-ply
4,Richard Kobr,,107.3,110,Czechia,-250,250,-265,250,250,M,B,Single-ply
5,Piet Faber,1962,110,110,Netherlands,240,247.5,-262.5,247.5,247.5,M,B,Single-ply
6,Frenzel Kastaneer,1971,109.7,110,Netherlands,237.5,245,-262.5,245,245,M,B,Single-ply
7,Raoul Donati,1963,108.2,110,USA,-237.5,237.5,-245,237.5,237.5,M,B,Single-ply
8,Vincent Urbaniak,1963,108.6,110,France,-237.5,237.5,-242.5,237.5,237.5,M,B,Single-ply
9,Torsten Mainka,1965,109.4,110,Germany,-235,235,-250,235,235,M,B,Single-ply
10,Dag Mikalsen,,108.7,110,Norway,-232.5,232.5,-240,232.5,232.5,M,B,Single-ply
11,Rolands Gulbis,1974,108.7,110,Latvia,205,215,217.5,217.5,217.5,M,B,Single-ply
12,Daniel Royer,1957,107.9,110,Canada,195,202.5,205,205,205,M,B,Single-ply
13,Loretto DeLuca,1953,105.2,110,Switzerland,195,202.5,-205,202.5,202.5,M,B,Single-ply
14,Jimmy Dowling,1971,109.2,110,Canada,192.5,202.5,-210,202.5,202.5,M,B,Single-ply
15,Gerald Correia,1978,109.2,110,South Africa,200,-210,-210,200,200,M,B,Single-ply
16,Tim Duke,,101.3,110,Great Britain,185,-192.5,-192.5,185,185,M,B,Single-ply
17,Devi Chand,,102.5,110,India,150,-165,-170,150,150,M,B,Single-ply
1,Szabolcz Balasz,1973,121.9,125,Hungary,265,272.5,282.5,282.5,282.5,M,B,Single-ply
2,Daisuke Midote,1972,124.1,125,Japan,260,-272.5,282.5,282.5,282.5,M,B,Single-ply
3,Andrei Sherbakov,1968,124.2,125,Russia,250,257.5,262.5,262.5,262.5,M,B,Single-ply
4,Michael Fritz,1974,118,125,Germany,250,255,-257.5,255,255,M,B,Single-ply
5,Marcus Hirvonen,1976,120.1,125,Sweden,255,-260,-260,255,255,M,B,Single-ply
6,Miska Kunnari,1977,122.4,125,Finland,-252.5,-252.5,252.5,252.5,252.5,M,B,Single-ply
7,Ramzan Yussupov,1975,124.3,125,Kazahkstan,230,240,247.5,247.5,247.5,M,B,Single-ply
8,Mauri Kortesalmi,1963,120.3,125,Finland,245,-252.5,-257.5,245,245,M,B,Single-ply
9,Daniel Solomon,1968,122.1,125,New Zealand,245,-255,-255,245,245,M,B,Single-ply
10,Odd Fjeldheim,1970,119.4,125,Norway,225,235,-240,235,235,M,B,Single-ply
11,ElMohamm Hamdouny,1952,115.6,125,Netherlands,220,230,-235,230,230,M,B,Single-ply
12,Noel Doucette,1962,115.3,125,Canada,210,220,227.5,227.5,227.5,M,B,Single-ply
13,Gerald O'Halloran,1970,124.2,125,Canada,170,180,185,185,185,M,B,Single-ply
14,Naresh Kumar,,122.7,125,India,170,-185,-190,170,170,M,B,Single-ply
1,Kosicz Czongor,1964,149.4,125+,Hungary,260,275,290,290,290,M,B,Single-ply
2,Beau Moore,1965,148.7,125+,USA,275,280,-290,280,280,M,B,Single-ply
3,Ulf Wiklund,1964,154.8,125+,Sweden,257.5,265,272.5,272.5,272.5,M,B,Single-ply
4,Jacek Szambelan,1975,132.8,125+,Poland,260,-267.5,270,270,270,M,B,Single-ply
5,Niels Staerker,1965,150.5,125+,Denmark,252.5,260,-265,260,260,M,B,Single-ply
6,Evgeni Timofev,1971,146.6,125+,Russia,245,255,-265,255,255,M,B,Single-ply
7,Johan Vikberg,1975,128.6,125+,Sweden,245,252.5,-265,252.5,252.5,M,B,Single-ply
8,Kari Aho,1965,155.4,125+,Finland,242.5,250,252.5,252.5,252.5,M,B,Single-ply
9,Ove Lehto,1972,129.1,125+,Finland,237.5,245,250,250,250,M,B,Single-ply
10,Zdeněk Sedmík,1974,131.9,125+,Czechia,240,247.5,-255,247.5,247.5,M,B,Single-ply
11,Frank Meichsner,1961,127.5,125+,Germany,240,-250,-252.5,240,240,M,B,Single-ply
12,Ove Andreassen,1963,152.8,125+,Norway,-230,230,-245,230,230,M,B,Single-ply
13,Rick Fricker,,147.1,125+,Great Britain,180,192.5,197.5,197.5,197.5,M,B,Single-ply
14,Shayam Akolkar,,130.9,125+,India,160,-175,180,180,180,M,B,Single-ply
